{
    "au" : [ "visa", "mastercard", "eftpos", "amex", "jcb", "applepay", "googlepay", "samsungpay" ],
    "ca" : [ "visa", "mastercard", "amex", "interac", "jcb", "applepay", "googlepay" ],
    "es" : [ "visa", "visapay", "mastercard", "maestro", "amex", "applepay", "googlepay" ],
    "fr" : [ "visa", "visapay", "mastercard", "maestro", "amex", "applepay", "googlepay" ],
    "ie" : [ "visa", "visapay", "mastercard", "maestro", "amex", "applepay", "googlepay" ],
    "gb" : [ "visa", "visapay", "mastercard", "maestro", "amex", "applepay", "googlepay" ],
    "ie" : [ "visa", "visapay", "mastercard", "maestro", "amex", "applepay", "googlepay" ],
    "jp" : [ "visa", "mastercard", "amex" ],
    "us" : [ "applepay", "googlepay", "cashapp", "visa", "mastercard", "amex", "discover", "jcb" ]
}
